\relax 
\citation{work1}
\citation{work2}
\citation{work3}
\citation{work4}
\@writefile{toc}{\contentsline {section}{\numberline {1}\hskip -1em.\nobreakspace  {}Introduction}{1}}
\@writefile{lof}{\contentsline {figure}{\numberline {1}{\ignorespaces Scheme of the equipment used for the following task.}}{1}}
\newlabel{fig:equ}{{1}{1}}
\@writefile{toc}{\contentsline {section}{\numberline {2}\hskip -1em.\nobreakspace  {}Related Work}{1}}
\citation{h264}
\citation{h264}
\citation{h264tech}
\citation{kalal}
\citation{kalal}
\citation{kalal}
\citation{viola}
\@writefile{toc}{\contentsline {section}{\numberline {3}\hskip -1em.\nobreakspace  {}Materials and Methods}{2}}
\@writefile{toc}{\contentsline {subsection}{\numberline {3.1}\hskip -1em.\nobreakspace  {}Quadcopter}{2}}
\@writefile{toc}{\contentsline {subsection}{\numberline {3.2}\hskip -1em.\nobreakspace  {}Image processing}{2}}
\@writefile{toc}{\contentsline {subsubsection}{\numberline {3.2.1}Initialization}{2}}
\citation{viola}
\citation{ozuysal}
\citation{lepetit}
\@writefile{lof}{\contentsline {figure}{\numberline {2}{\ignorespaces Computation of patch $p^{(i)}$ mean as sum of mean patches from integral image. }}{3}}
\newlabel{fig:int}{{2}{3}}
\@writefile{toc}{\contentsline {subsubsection}{\numberline {3.2.2}Training}{3}}
\@writefile{lof}{\contentsline {figure}{\numberline {3}{\ignorespaces Training of the fern classifiers. Each orange line depicts a pixel comparison between its ends. Each pixel comparison layer is applied to each training patch.}}{3}}
\newlabel{fig:fern}{{3}{3}}
\citation{viola}
\citation{pid}
\@writefile{toc}{\contentsline {subsubsection}{\numberline {3.2.3}Evaluation}{4}}
\@writefile{lof}{\contentsline {figure}{\numberline {4}{\ignorespaces Sliding window patches (red). Two scale of patches shown.}}{4}}
\newlabel{fig:slid}{{4}{4}}
\@writefile{toc}{\contentsline {subsection}{\numberline {3.3}\hskip -1em.\nobreakspace  {}PI controller}{4}}
\@writefile{lof}{\contentsline {figure}{\numberline {5}{\ignorespaces Horizontal and vertical error used for drone position set point.}}{4}}
\newlabel{fig:hyv}{{5}{4}}
\@writefile{lof}{\contentsline {figure}{\numberline {6}{\ignorespaces Out of plane rotation used for drone position set point.}}{5}}
\newlabel{fig:orient}{{6}{5}}
\@writefile{lof}{\contentsline {figure}{\numberline {7}{\ignorespaces Scale error used for drone position set point.}}{5}}
\newlabel{fig:scale}{{7}{5}}
\newlabel{eq:model}{{7}{5}}
\@writefile{lof}{\contentsline {figure}{\numberline {8}{\ignorespaces Structure of the control system.}}{5}}
\newlabel{fig:control}{{8}{5}}
\@writefile{toc}{\contentsline {section}{\numberline {4}\hskip -1em.\nobreakspace  {}Results}{5}}
\@writefile{lof}{\contentsline {figure}{\numberline {9}{\ignorespaces Experiment set up for the following task.}}{5}}
\newlabel{fig:problem}{{9}{5}}
\@writefile{lof}{\contentsline {figure}{\numberline {10}{\ignorespaces Results for the following task from a top view.}}{5}}
\newlabel{fig:results}{{10}{5}}
\citation{movingh264}
\bibstyle{ieee}
\bibdata{egbib}
\bibcite{h264tech}{1}
\bibcite{work2}{2}
\bibcite{kalal}{3}
\bibcite{lepetit}{4}
\bibcite{work4}{5}
\bibcite{ozuysal}{6}
\bibcite{work1}{7}
\bibcite{pid}{8}
\bibcite{viola}{9}
\bibcite{h264}{10}
\bibcite{movingh264}{11}
\bibcite{work3}{12}
\@writefile{lof}{\contentsline {figure}{\numberline {11}{\ignorespaces Trajectory for the following task from a top view.}}{6}}
\newlabel{fig:results2}{{11}{6}}
\@writefile{lof}{\contentsline {figure}{\numberline {12}{\ignorespaces Error at fast orientation change.}}{6}}
\newlabel{fig:results3}{{12}{6}}
\@writefile{toc}{\contentsline {section}{\numberline {5}\hskip -1em.\nobreakspace  {}Conclusions and future work}{6}}
