\relax 
\citation{tensor}
\citation{tucker}
\citation{parafac}
\citation{cvbook1}
\citation{cvbook1}
\@writefile{toc}{\contentsline {section}{\numberline {1}\hskip -1em.\nobreakspace  {}Introduction}{1}}
\citation{eigface}
\citation{lfw}
\citation{eigface}
\citation{tensor}
\citation{MSL}
\citation{MSL}
\citation{pca1}
\citation{tucker}
\citation{tucker}
\citation{hopls}
\citation{eigface}
\citation{plsvehic}
\@writefile{lof}{\contentsline {figure}{\numberline {1}{\ignorespaces High order arrays.}}{2}}
\newlabel{fig:tensor}{{1}{2}}
\@writefile{toc}{\contentsline {section}{\numberline {2}\hskip -1em.\nobreakspace  {}Related Work}{2}}
\@writefile{lof}{\contentsline {figure}{\numberline {2}{\ignorespaces Linear and multilinear subspace approximation approaches.}}{2}}
\newlabel{fig:bibmap}{{2}{2}}
\citation{hopls}
\citation{tucker}
\citation{kolda}
\citation{tensorface}
\citation{tensorface2}
\citation{tensorly}
\citation{tensorlearn}
\citation{deeptensor}
\citation{tensorregression}
\citation{eigface}
\citation{eigmit}
\citation{tensorface}
\citation{tensorface2}
\citation{tensorface3}
\citation{eigface}
\citation{tensor}
\citation{tensor}
\citation{tucker}
\citation{lathauwer}
\citation{kolda}
\citation{parafac}
\citation{parafac1}
\citation{latthesis}
\citation{ica}
\citation{ica1}
\citation{tensor}
\citation{tensor}
\@writefile{toc}{\contentsline {section}{\numberline {3}\hskip -1em.\nobreakspace  {}Materials and Methods}{4}}
\citation{tucker}
\citation{tucker}
\citation{lathauwer}
\citation{kolda}
\citation{hopls}
\@writefile{toc}{\contentsline {subsection}{\numberline {3.1}\hskip -1em.\nobreakspace  {}Previous background and notation}{5}}
\@writefile{lof}{\contentsline {figure}{\numberline {3}{\ignorespaces Unfolding of an order three tensor.}}{5}}
\@writefile{lof}{\contentsline {figure}{\numberline {4}{\ignorespaces Mode 1 product between a matrix and a third order tensor.}}{5}}
\@writefile{toc}{\contentsline {subsection}{\numberline {3.2}\hskip -1em.\nobreakspace  {}Tensor decomposition}{5}}
\newlabel{eq:td}{{1}{5}}
\newlabel{eq:unf}{{2}{5}}
\newlabel{eq:core}{{3}{5}}
\@writefile{toc}{\contentsline {subsection}{\numberline {3.3}\hskip -1em.\nobreakspace  {}Method}{5}}
\@writefile{lof}{\contentsline {figure}{\numberline {5}{\ignorespaces Covariance tensor construction and decomposition.}}{5}}
\newlabel{fig:parres}{{5}{5}}
\newlabel{eq:objhopls}{{4}{5}}
\citation{hopls}
\@writefile{lof}{\contentsline {figure}{\numberline {6}{\ignorespaces pcanet architecture}}{6}}
\newlabel{fig:parres}{{6}{6}}
\newlabel{eq:maxhopls}{{7}{6}}
\newlabel{eq:minhopls}{{8}{6}}
\newlabel{alg:hopls}{{1}{6}}
\@writefile{loa}{\contentsline {algocf}{\numberline {1}{\ignorespaces High Order Partial Least Squares}}{6}}
\@writefile{toc}{\contentsline {section}{\numberline {4}\hskip -1em.\nobreakspace  {}Streaming Tensor Analysis}{6}}
\citation{lfw}
\bibstyle{ieee}
\bibdata{hoplsbib}
\@writefile{toc}{\contentsline {section}{\numberline {5}\hskip -1em.\nobreakspace  {}Results}{7}}
\@writefile{lof}{\contentsline {figure}{\numberline {7}{\ignorespaces Parameters grid search.}}{7}}
\newlabel{fig:parres}{{7}{7}}
\@writefile{lof}{\contentsline {figure}{\numberline {8}{\ignorespaces Prediction of labels using PLS method.}}{7}}
\newlabel{fig:pls}{{8}{7}}
\@writefile{lof}{\contentsline {figure}{\numberline {9}{\ignorespaces Prediction of labels using the proposed method.}}{7}}
\newlabel{fig:hopls}{{9}{7}}
\newlabel{t1}{{5}{8}}
\@writefile{lot}{\contentsline {table}{\numberline {1}{\ignorespaces LFW, HOPLS, factor 40, loadings 8, 10.6 seg}}{8}}
\@writefile{lof}{\contentsline {figure}{\numberline {10}{\ignorespaces Features learned by the proposed method.}}{8}}
\newlabel{features}{{10}{8}}
\@writefile{lot}{\contentsline {table}{\numberline {2}{\ignorespaces Accuracy by method for LFW}}{8}}
\newlabel{t2}{{2}{8}}
\bibcite{parafac1}{1}
\bibcite{tensor}{2}
\bibcite{latthesis}{3}
\bibcite{lathauwer}{4}
\bibcite{tensorlearn}{5}
\bibcite{parafac}{6}
\bibcite{lfw}{7}
\bibcite{ica}{8}
\bibcite{ica1}{9}
\bibcite{plsvehic}{10}
\bibcite{eigface}{11}
\bibcite{deeptensor}{12}
\bibcite{kolda}{13}
\bibcite{tensorregression}{14}
\bibcite{tensorly}{15}
\bibcite{MSL}{16}
\bibcite{pca1}{17}
\bibcite{cvbook1}{18}
\bibcite{tucker}{19}
\bibcite{eigmit}{20}
\bibcite{tensorface}{21}
\bibcite{tensorface2}{22}
\bibcite{tensorface3}{23}
\bibcite{hopls}{24}
